{
  "spider": "./vip.jar",
  "wallpaper": "https://tuapi.eees.cc/api.php?category=fengjing&type=302",
  "lives": [
    {
      "name": "live",
      "type": 0,
      "url": "./lib/live.txt",
      "epg": "http://epg.112114.eu.org/?ch={name}&date={date}",
      "logo": "https://epg.112114.xyz/bingimg/logo/{name}.png"
    }
  ],
  "sites": [
     {
  "key":"天龙高清",
  "name":"拾光☪秒播",
  "type":3,
  "api":"csp_XBPQ",
  "jar": "./jar/xyqxbpq.jar",
  "searchable":1,
  "quickSearch":1,
  "filterable":1,
  "ext":{"发布地址":"http://113276.xyz",
  "数组":"<li><a&&BR>分类",
  "图片":"src=\"&&\"",
  "副标题":"BR>状态：&&<",
  "简介":"</font></br>&&</div>",
  "线路数组":"<i class=\"iconfont\"&&/font",
  "线路标题":"</i>&&<",
  "播放数组":"<div class=\"list playlist&&</div",
  "播放链接":"http://www.82mao.com/+href=\"javascript:OpenWindow3(\'/&&\',window)\"",
  "跳转播放链接":"http://cdn.tl86dyw.site/cs1/?id=+var player_*url\":\"&&\"",
  "搜索url":"http://www.82mao.com/Search/{wd}----------{pg}---.html",
  "分类url":"http://www.82mao.com/List/{cateId}-{area}--{class}-----{catePg}---{year}.html",
  "分类":"短剧$53#电影频道$17#电视剧场$18#综艺小品$20#动漫频道$48#经典系列$16#动作片$1#喜剧片$2#爱情片$3#科幻片$4#恐怖片$5#剧情片$6#战争片$13#纪录片$14#微电影$19#国产剧$9#香港剧$10#台湾剧$21#韩国剧$12#日本剧$22#欧美剧$11#泰国剧$23#海外剧$24#TVB专区$52#综艺片$8#内地综艺$25#港台综艺$26#日韩综艺$27#欧美综艺$28#动画片$7#国产动漫$29#日韩动漫$30#欧美动漫$31#港台动漫$32#海外动漫$33"}},
    {
      "key": "原创",
      "name": "拾光☪秒播①",
      "type": 3,
      "api": "csp_YCyz",
      "timeout": 15,
      "searchable": 1,
      "quickSearch": 1,
      "changeable": 1
    },
    {
      "key": "苹果",
      "name": "拾光☪秒播②",
      "type": 3,
      "api": "csp_LiteApple",
      "searchable": 1,
      "quickSearch": 1,
      "changeable": 1
    },
        {
      "key": "csp_五五",
      "name": "拾光☪秒播③",
      "type": 3,
      "api": "csp_XBPQ",
      "searchable": 1,
      "quickSearch": 1,
      "filterable": 1,
      "ext": "./lib/55.json"
    },
        {
      "key": "兄弟影视",
      "name": "拾光☪秒播④",
      "type": 3,
      "api": "csp_XBPQ",
      "searchable": 1,
      "quickSearch": 1,
      "filterable": 1,
      "ext": "./lib/兄弟影视.json"
    },
        {
      "key": "厂长",
      "name": "拾光☪秒播⑤",
      "type": 3,
      "api": "csp_NewCz",
      "timeout": 15,
      "playerType": 2,
      "searchable": 1,
      "quickSearch": 1,
      "changeable": 1,
      "ext": "https://www.czys.top/"
    },
        {
      "key": "csp_xBPQ_小茶狐",
      "name": "拾光☪秒播⑥",
      "type": 3,
      "api": "csp_XBPQ",
      "searchable": 1,
      "quickSearch": 1,
      "filterable": 1,
      "ext": "./lib/小茶狐.json"
    },
        {
      "key": "红狐狸影院",
      "name": "拾光☪秒播⑦",
      "type": 3,
      "api": "csp_XBPQ",
      "ext": {
        "简介": "+line-height: 20px;\">&&</div>",
        "分类url": "https://honghuli.com/leibiao/{cateId}-{area}--{class}-----{catePg}---{year}.html",
        "分类": "短剧$35#电影$1#连续剧$2#动漫$4#综艺$3"
      }
    },
        {
      "key": "南瓜",
      "name": "拾光☪秒播⑧",
      "type": 3,
      "api": "csp_NanGua",
      "timeout": 15,
      "playerType": 2,
      "searchable": 1,
      "quickSearch": 1,
      "changeable": 1
    },
        {
      "key": "凯奇追剧",
      "name": "拾光☪秒播⑨",
      "type": 3,
      "api": "csp_XBPQ",
      "ext": {
        "简介": "+hl-content-text\">&&</span>",
        "分类url": "https://www.kqyy.tv/vodshow/area/{area}/class/{class}/id/{cateId}/page/{catePg}/year/{year}.html",
        "分类": "电影$dianying#连续剧$lianxuju#动漫$dongman#综艺$zongyi#短剧$duanshipin"
      }
    },
        {
      "key": "比特",
      "name": "拾光☪秒播⑩",
      "type": 3,
      "api": "csp_Bttwoo",
      "searchable": 1,
      "quickSearch": 1,
      "changeable": 1
    },
        {
      "key": "VIP影视",
      "name": "拾光☪秒播⑪",
      "type": 3,
      "api": "csp_XPath",
      "searchable": 1,
      "quickSearch": 1,
      "filterable": 0,
      "ext": "./lib/VIPyingshi.json"
    },
        {
      "key": "csp_XYQBiu_骚火VIP",
      "name": "拾光☪秒播⑫",
      "type": 3,
      "api": "csp_XBPQ",
      "searchable": 1,
      "quickSearch": 1,
      "filterable": 1,
      "ext": "./lib/shyyVIP.json"
    },
        {
      "key": "奈飞影视",
      "name": "拾光☪秒播⑬",
      "type": 3,
      "api": "csp_XYQHiker",
      "searchable": 1,
      "quickSearch": 1,
      "filterable": 1,
      "ext": "./lib/ynfys.json"
    },
        {
      "key": "Lib",
      "name": "拾光☪秒播⑭",
      "type": 3,
      "api": "csp_Libvio",
      "timeout": 15,
      "searchable": 1,
      "quickSearch": 1,
      "changeable": 1,
      "ext": "https://www.libvio.pw/"
    },
       {
      "key": "玩偶哥哥",
      "name": "拾光☪玩偶哥",
      "type": 3,
      "api": "csp_XYQHikerAL",
      "searchable": 1,
      "quickSearch": 1,
      "filterable": 1,
      "ext": "./lib/玩偶哥哥.json"
    },
    {
      "key": "360影视",
      "name": "拾光☪叁六零",
      "type": 3,
      "api": "csp_SP360",
      "searchable": 1,
      "quickSearch": 1,
      "filterable": 1,
      "changeable": 0
    },
            {
      "key": "玩我哥哥",
      "name": "拾光☪玩我哥",
      "type": 3,
      "api": "csp_XYQHikerAL",
      "searchable": 1,
      "quickSearch": 1,
      "filterable": 1,
      "ext": "./lib/玩我哥哥.json"
    },
        {
      "key": "csp_XYQHiker_影搜",
      "name": "拾光☪搜4K①",
      "type": 3,
      "api": "csp_XYQHiker",
      "searchable": 1,
      "quickSearch": 1,
      "filterable": 1,
      "ext": "./lib/影搜.json"
    },
        {
      "key": "csp_Upyunso",
      "name": "拾光☪搜4K②",
      "type": 3,
      "api": "csp_Upyunso",
      "searchable": 1,
      "quickSearch": 1,
      "filterable": 0,
      "ext": "http://127.0.0.1:9978/file/XYQTVBox/alitoken.txt"
    },
    {
      "key": "csp_XYQHikerAL_云盘资源",
      "name": "拾光☪搜4K③",
      "type": 3,
      "api": "csp_XYQHikerAL",
      "searchable": 1,
      "quickSearch": 1,
      "filterable": 1,
      "ext": "./lib/云盘资源.json"
    },
    {
      "key": "js_a8音乐",
      "name": "公众号：拾光趣乐屋",
      "type": 3,
      "api": "./lib/drpy2.min.js",
      "searchable": 1,
      "quickSearch": 1,
      "filterable": 1,
      "ext": "./lib/a8yy.js"
    }
  ],
  "parses": [
   {
      "name": "Json聚合",
      "type": 3,
      "url": "Demo"
    },
    {
      "name": "4K",
      "type": 1,
      "url": "http://119.91.123.253:2345/Api/yun.php?url="
    },
    {
      "name": "5K",
      "type": 1,
      "url": "http://122.228.84.103:7777/api/?key=rSqUtltpbfk1xsQFjz&url="
    }
  ],
  "flags": [
    "youku",
    "qq",
    "QQ",
    "iqiyi",
    "qiyi",
    "letv",
    "sohu",
    "tudou",
    "pptv",
    "PPTV",
    "mgtv",
    "ltnb",
    "rx",
    "SLYS4k",
    "BYGA",
    "BYGB",
    "luanzi",
    "dxzy",
    "QEYSS",
    "aliyun",
    "AliS",
    "122",
    "chuangying",
    "CL4K",
    "xfyun",
    "wuduzy",
    "wasu",
    "bilibili",
    "renrenmi",
    "xmm",
    "xigua",
    "m1905",
    "funshion",
    "优酷",
    "芒果",
    "腾讯",
    "爱奇艺",
    "奇艺",
    "哔哩哔哩",
    "哔哩",
    "西瓜视频",
    "腾讯视频",
    "奇艺视频",
    "优酷视频",
    "芒果视频",
    "乐视视频",
    "FY",
    "fy",
    "FeiYun",
    "feiyun",
    "飞云"
  ],
  "doh": [
    {
      "name": "Google",
      "url": "https://dns.google/dns-query",
      "ips": [
        "8.8.4.4",
        "8.8.8.8"
      ]
    },
    {
      "name": "Cloudflare",
      "url": "https://cloudflare-dns.com/dns-query",
      "ips": [
        "1.1.1.1",
        "1.0.0.1",
        "2606:4700:4700::1111",
        "2606:4700:4700::1001"
      ]
    },
    {
      "name": "AdGuard",
      "url": "https://dns.adguard.com/dns-query",
      "ips": [
        "94.140.14.140",
        "94.140.14.141"
      ]
    },
    {
      "name": "DNSWatch",
      "url": "https://resolver2.dns.watch/dns-query",
      "ips": [
        "84.200.69.80",
        "84.200.70.40"
      ]
    },
    {
      "name": "Quad9",
      "url": "https://dns.quad9.net/dns-quer",
      "ips": [
        "9.9.9.9",
        "149.112.112.112"
      ]
    }
  ],
  "rules": [
    {
      "name": "♻️非凡",
      "hosts": [
        "ffzy"
      ],
      "regex": [
        "18.0"
      ]
    },
    {
      "name": "♻️量子",
      "hosts": [
        "lz"
      ],
      "regex": [
        "17.2",
        "19.84"
      ]
    },
    {
      "name": "♻️乐视",
      "hosts": [
        "leshiyun"
      ],
      "regex": [
        "15.92"
      ]
    },
    {
      "name": "♻️优质",
      "hosts": [
        "yzzy"
      ],
      "regex": [
        "18.66",
        "19.52",
        "19.13"
      ]
    },
    {
      "name": "♻️YQK",
      "hosts": [
        "ydd"
      ],
      "regex": [
        "18.4",
        "15.1666",
        "16.5333"
      ]
    },
    {
      "name": "♻️快看",
      "hosts": [
        "kuaikan"
      ],
      "regex": [
        "15.32",
        "15.231"
      ]
    },
    {
      "host": "www.iesdouyin.com",
      "rule": [
        "playwm/?video_id="
      ]
    },
    {
      "host": "www.ysgc.vip",
      "rule": [
        "getm3u8?url=http"
      ]
    },
    {
      "host": "v.douyin.com",
      "rule": [
        "playwm/?video_id="
      ]
    },
    {
      "host": "dyxs20.com",
      "rule": [
        ".m3u8"
      ]
    },
    {
      "host": "www.agemys.cc",
      "rule": [
        "cdn-tos",
        "obj/tos-cn"
      ]
    },
    {
      "host": "www.sharenice.net",
      "rule": [
        "http.*?/play.{0,3}\\?[^url]{2,8}=.*",
        "qianpailive.com",
        "vid="
      ]
    },
    {
      "name": "暴风",
      "hosts": [
        "bfzy",
        "bfbfvip"
      ],
      "regex": [
        "#EXTINF.*?\\s+.*?adjump.*?\\.ts\\s+"
      ]
    },
    {
      "name": "量子",
      "hosts": [
        "vip.lz",
        "hd.lz",
        ".cdnlz"
      ],
      "regex": [
        "17.19",
        "#EXT-X-DISCONTINUITY\\r*\\n*#EXTINF:7\\.166667,[\\s\\S]*?#EXT-X-DISCONTINUITY",
        "#EXTINF.*?\\s+.*?1o.*?\\.ts\\s+"
      ]
    },
    {
      "name": "非凡",
      "hosts": [
        "vip.ffzy",
        "hd.ffzy"
      ],
      "regex": [
        "17.99",
        "#EXT-X-DISCONTINUITY\\r*\\n*#EXTINF:6\\.400000,[\\s\\S]*?#EXT-X-DISCONTINUITY",
        "#EXTINF.*?\\s+.*?1170(20|32).*?\\.ts\\s+",
        "#EXTINF.*?\\s+.*?116977.*?\\.ts\\s+"
      ]
    },
    {
      "name": "索尼",
      "hosts": [
        "suonizy"
      ],
      "regex": [
        "#EXT-X-DISCONTINUITY\\r*\\n*#EXTINF:1\\.000000,[\\s\\S]*?#EXT-X-DISCONTINUITY",
        "#EXTINF.*?\\s+.*?p1ayer.*?\\.ts\\s+",
        "#EXTINF.*?\\s+.*?\\/video\\/original.*?\\.ts\\s+"
      ]
    },
    {
      "name": "快看",
      "hosts": [
        "kuaikan"
      ],
      "regex": [
        "#EXT-X-KEY:METHOD=NONE\\r*\\n*#EXTINF:5,[\\s\\S]*?#EXT-X-DISCONTINUITY",
        "#EXT-X-KEY:METHOD=NONE\\r*\\n*#EXTINF:2\\.4,[\\s\\S]*?#EXT-X-DISCONTINUITY"
      ]
    },
    {
      "name": "海外看",
      "hosts": [
        "haiwaikan"
      ],
      "regex": [
        "10.0099",
        "10.3333",
        "16.0599",
        "8.1748",
        "10.85"
      ]
    },
    {
      "name": "蜗牛直连去广",
      "hosts": [
        "vip.123pan.cn",
        "rescdn.wuxivlog.cn"
      ],
      "regex": [
        "#EXT-X-DISCONTINUITY\\r*\\n*#EXTINF:20.840000,[\\s\\S]*?#EXT-X-DISCONTINUITY",
        "#EXT-X-DISCONTINUITY\\r*\\n*#EXTINF:10.120000,[\\s\\S]*?#EXT-X-DISCONTINUITY",
        "#EXTINF.*?\\s+.*?1o.*?\\.ts\\s+"
      ]
    }
  ],
  "ijk": [
    {
      "group": "软解码",
      "options": [
        {
          "category": 4,
          "name": "opensles",
          "value": "0"
        },
        {
          "category": 4,
          "name": "overlay-format",
          "value": "842225234"
        },
        {
          "category": 4,
          "name": "framedrop",
          "value": "1"
        },
        {
          "category": 4,
          "name": "soundtouch",
          "value": "1"
        },
        {
          "category": 4,
          "name": "start-on-prepared",
          "value": "1"
        },
        {
          "category": 1,
          "name": "http-detect-range-support",
          "value": "0"
        },
        {
          "category": 1,
          "name": "fflags",
          "value": "fastseek"
        },
        {
          "category": 2,
          "name": "skip_loop_filter",
          "value": "48"
        },
        {
          "category": 4,
          "name": "reconnect",
          "value": "1"
        },
        {
          "category": 4,
          "name": "enable-accurate-seek",
          "value": "0"
        },
        {
          "category": 4,
          "name": "mediacodec",
          "value": "0"
        },
        {
          "category": 4,
          "name": "mediacodec-auto-rotate",
          "value": "0"
        },
        {
          "category": 4,
          "name": "mediacodec-handle-resolution-change",
          "value": "0"
        },
        {
          "category": 4,
          "name": "mediacodec-hevc",
          "value": "0"
        },
        {
          "category": 1,
          "name": "dns_cache_timeout",
          "value": "600000000"
        }
      ]
    },
    {
      "group": "硬解码",
      "options": [
        {
          "category": 4,
          "name": "opensles",
          "value": "0"
        },
        {
          "category": 4,
          "name": "overlay-format",
          "value": "842225234"
        },
        {
          "category": 4,
          "name": "framedrop",
          "value": "1"
        },
        {
          "category": 4,
          "name": "soundtouch",
          "value": "1"
        },
        {
          "category": 4,
          "name": "start-on-prepared",
          "value": "1"
        },
        {
          "category": 1,
          "name": "http-detect-range-support",
          "value": "0"
        },
        {
          "category": 1,
          "name": "fflags",
          "value": "fastseek"
        },
        {
          "category": 2,
          "name": "skip_loop_filter",
          "value": "48"
        },
        {
          "category": 4,
          "name": "reconnect",
          "value": "1"
        },
        {
          "category": 4,
          "name": "enable-accurate-seek",
          "value": "0"
        },
        {
          "category": 4,
          "name": "mediacodec",
          "value": "1"
        },
        {
          "category": 4,
          "name": "mediacodec-auto-rotate",
          "value": "1"
        },
        {
          "category": 4,
          "name": "mediacodec-handle-resolution-change",
          "value": "1"
        },
        {
          "category": 4,
          "name": "mediacodec-hevc",
          "value": "1"
        },
        {
          "category": 1,
          "name": "dns_cache_timeout",
          "value": "600000000"
        }
      ]
    }
  ],
  "ads": [
    "mimg.0c1q0l.cn",
    "www.googletagmanager.com",
    "www.google-analytics.com",
    "mc.usihnbcq.cn",
    "mg.g1mm3d.cn",
    "mscs.svaeuzh.cn",
    "cnzz.hhttm.top",
    "tp.vinuxhome.com",
    "cnzz.mmstat.com",
    "www.baihuillq.com",
    "s23.cnzz.com",
    "z3.cnzz.com",
    "c.cnzz.com",
    "stj.v1vo.top",
    "z12.cnzz.com",
    "img.mosflower.cn",
    "tips.gamevvip.com",
    "ehwe.yhdtns.com",
    "xdn.cqqc3.com",
    "www.jixunkyy.cn",
    "sp.chemacid.cn",
    "hm.baidu.com",
    "s9.cnzz.com",
    "z6.cnzz.com",
    "um.cavuc.com",
    "mav.mavuz.com",
    "wofwk.aoidf3.com",
    "z5.cnzz.com",
    "xc.hubeijieshikj.cn",
    "tj.tianwenhu.com",
    "xg.gars57.cn",
    "k.jinxiuzhilv.com",
    "cdn.bootcss.com",
    "ppl.xunzhuo123.com",
    "xomk.jiangjunmh.top",
    "img.xunzhuo123.com",
    "z1.cnzz.com",
    "s13.cnzz.com",
    "xg.huataisangao.cn",
    "z7.cnzz.com",
    "xg.huataisangao.cn",
    "z2.cnzz.com",
    "s96.cnzz.com",
    "q11.cnzz.com",
    "thy.dacedsfa.cn",
    "xg.whsbpw.cn",
    "s19.cnzz.com",
    "z8.cnzz.com",
    "s4.cnzz.com",
    "f5w.as12df.top",
    "ae01.alicdn.com",
    "www.92424.cn",
    "k.wudejia.com",
    "vivovip.mmszxc.top",
    "qiu.xixiqiu.com",
    "cdnjs.hnfenxun.com",
    "cms.qdwght.com",
    "api.htpan.net"
  ]
}